<?xml version="1.0" encoding="UTF-8"?>
<svg width="22px" height="11px" viewBox="0 0 22 11" version="1.1" xmlns="http://www.w3.org/2000/svg" xmlns:xlink="http://www.w3.org/1999/xlink">
    <!-- Generator: sketchtool 52.5 (67469) - http://www.bohemiancoding.com/sketch -->
    <title>D893C4A8-AFDC-4FE2-81D9-DF82598E6F91</title>
    <desc>Created with sketchtool.</desc>
    <g id="Page-1" stroke="none" stroke-width="1" fill="none" fill-rule="evenodd">
        <g id="Mobile-2" transform="translate(-20.000000, -21.000000)" fill="#999999">
            <path d="M20,21 L42,21 L42,22.9411765 L20,22.9411765 L20,21 Z M20,25.5294118 L38.1176471,25.5294118 L38.1176471,27.4705882 L20,27.4705882 L20,25.5294118 Z M20,30.0588235 L31,30.0588235 L31,32 L20,32 L20,30.0588235 Z" id="Combined-Shape"></path>
        </g>
    </g>
</svg>