<?xml version="1.0" encoding="UTF-8"?>
<svg width="16px" height="16px" viewBox="0 0 16 16" version="1.1" xmlns="http://www.w3.org/2000/svg" xmlns:xlink="http://www.w3.org/1999/xlink">
    <!-- Generator: sketchtool 52.5 (67469) - http://www.bohemiancoding.com/sketch -->
    <title>8CF6B7F7-7BF8-42CF-91FD-B6B27190D2BD</title>
    <desc>Created with sketchtool.</desc>
    <defs>
        <path d="M0.895566304,0.156277724 L0.156771041,0.894490518 C-0.0539780529,1.10520733 -0.0506924323,1.43888139 0.156771041,1.64631308 L14.3112246,15.8004757 C14.5200962,16.008846 14.8556989,16.0079074 15.0631624,15.8000064 L15.8014883,15.0617936 C16.0127067,14.8510768 16.0094211,14.5174028 15.8019577,14.3099711 L1.64750405,0.155808422 C1.54330294,0.0516232723 1.40765375,0 1.27200455,0 C1.13588598,0 0.999298041,0.0520925747 0.895566304,0.156277724 L0.895566304,0.156277724 Z" id="path-1"></path>
    </defs>
    <g id="Page-1" stroke="none" stroke-width="1" fill="none" fill-rule="evenodd">
        <g id="Brand_Mobile-1" transform="translate(-20.000000, -19.000000)">
            <g id="Header">
                <g id="Exit-icon" transform="translate(20.000000, 19.000000)">
                    <g id="Group-22">
                        <mask id="mask-2" fill="white">
                            <use xlink:href="#path-1"></use>
                        </mask>
                        <g id="Clip-21"></g>
                    </g>
                    <path d="M1.06666667,1 L14.9333333,15" id="Stroke-23" stroke="#999999" stroke-width="2.016" stroke-linecap="round"></path>
                    <path d="M14.9333333,1 L1.06666667,15" id="Stroke-25" stroke="#999999" stroke-width="2.016" stroke-linecap="round"></path>
                </g>
            </g>
        </g>
    </g>
</svg>