<?xml version="1.0" encoding="UTF-8"?>
<svg width="20px" height="20px" viewBox="0 0 20 20" version="1.1" xmlns="http://www.w3.org/2000/svg" xmlns:xlink="http://www.w3.org/1999/xlink">
    <!-- Generator: Sketch 52.5 (67469) - http://www.bohemiancoding.com/sketch -->
    <title>UI/Icons/Dash_Supp/Selected/Divisions</title>
    <desc>Created with Sketch.</desc>
    <g id="UI/Icons/Dash_Supp/Selected/Divisions" stroke="none" stroke-width="1" fill="none" fill-rule="evenodd">
        <g id="ic_light">
            <polygon id="Path" points="0 0 20 0 20 20 0 20"></polygon>
        </g>
        <g id="Group-3" transform="translate(2.000000, 2.000000)">
            <rect id="Rectangle" stroke="#EFBB5E" stroke-width="1.5" x="0.75" y="0.75" width="14.5" height="14.5" rx="2"></rect>
            <rect id="Rectangle" fill="#EFBB5E" x="9" y="4" width="3.5" height="3.5" rx="1"></rect>
            <rect id="Rectangle-Copy-2" fill="#EFBB5E" x="4" y="4" width="3.5" height="3.5" rx="1"></rect>
            <rect id="Rectangle-Copy-3" fill="#EFBB5E" x="4" y="9" width="3.5" height="3.5" rx="1"></rect>
            <rect id="Rectangle-Copy-4" fill="#EFBB5E" x="9" y="9" width="3.5" height="3.5" rx="1"></rect>
        </g>
    </g>
</svg>