<?xml version="1.0" encoding="UTF-8"?>
<svg width="16px" height="16px" viewBox="0 0 16 16" version="1.1" xmlns="http://www.w3.org/2000/svg" xmlns:xlink="http://www.w3.org/1999/xlink">
    <!-- Generator: sketchtool 52.5 (67469) - http://www.bohemiancoding.com/sketch -->
    <title>FE975AF5-42DE-4845-ABB4-C7294E479B2D</title>
    <desc>Created with sketchtool.</desc>
    <g id="Page-1" stroke="none" stroke-width="1" fill="none" fill-rule="evenodd">
        <g id="Supplier-Dashboard-Left-menu-(open)" transform="translate(-42.000000, -442.000000)">
            <g id="Left-Menu" transform="translate(0.000000, 70.000000)">
                <g id="Divisions" transform="translate(40.000000, 370.000000)">
                    <g id="ic_light">
                        <g id="Path">
                            <polygon points="0 0 20 0 20 20 0 20"></polygon>
                        </g>
                        <rect id="Rectangle" stroke="#94979B" stroke-width="1.5" x="2.75" y="2.75" width="14.5" height="14.5" rx="2"></rect>
                        <g id="Group-3" transform="translate(6.000000, 6.000000)" fill="#94979B">
                            <rect id="Rectangle" x="5" y="0" width="3.5" height="3.5" rx="1"></rect>
                            <rect id="Rectangle-Copy-2" x="0" y="0" width="3.5" height="3.5" rx="1"></rect>
                            <rect id="Rectangle-Copy-3" x="0" y="5" width="3.5" height="3.5" rx="1"></rect>
                            <rect id="Rectangle-Copy-4" x="5" y="5" width="3.5" height="3.5" rx="1"></rect>
                        </g>
                    </g>
                </g>
            </g>
        </g>
    </g>
</svg>