<?xml version="1.0" encoding="UTF-8"?>
<svg width="18px" height="18px" viewBox="0 0 18 18" version="1.1" xmlns="http://www.w3.org/2000/svg" xmlns:xlink="http://www.w3.org/1999/xlink">
    <!-- Generator: sketchtool 52.5 (67469) - http://www.bohemiancoding.com/sketch -->
    <title>B61230D5-B4DD-4E6B-829D-DA6B6C5223DA</title>
    <desc>Created with sketchtool.</desc>
    <g id="Page-1" stroke="none" stroke-width="1" fill="none" fill-rule="evenodd">
        <g id="Supplier-Dashboard-Left-menu-(open)" transform="translate(-41.000000, -788.000000)" fill="#94979B" fill-rule="nonzero">
            <g id="Left-Menu" transform="translate(0.000000, 70.000000)">
                <g id="Settings" transform="translate(40.000000, 717.000000)">
                    <g id="ic_settings">
                        <g id="Shape">
                            <path d="M16.1916667,10.8166667 C16.225,10.55 16.25,10.2833333 16.25,10 C16.25,9.71666667 16.225,9.45 16.1916667,9.18333333 L17.95,7.80833333 C18.1083333,7.68333333 18.15,7.45833333 18.05,7.275 L16.3833333,4.39166667 C16.3083333,4.25833333 16.1666667,4.18333333 16.0166667,4.18333333 C15.9666667,4.18333333 15.9166667,4.19166667 15.875,4.20833333 L13.8,5.04166667 C13.3666667,4.70833333 12.9,4.43333333 12.3916667,4.225 L12.075,2.01666667 C12.05,1.81666667 11.875,1.66666667 11.6666667,1.66666667 L8.33333333,1.66666667 C8.125,1.66666667 7.95,1.81666667 7.925,2.01666667 L7.60833333,4.225 C7.1,4.43333333 6.63333333,4.71666667 6.2,5.04166667 L4.125,4.20833333 C4.075,4.19166667 4.025,4.18333333 3.975,4.18333333 C3.83333333,4.18333333 3.69166667,4.25833333 3.61666667,4.39166667 L1.95,7.275 C1.84166667,7.45833333 1.89166667,7.68333333 2.05,7.80833333 L3.80833333,9.18333333 C3.775,9.45 3.75,9.725 3.75,10 C3.75,10.275 3.775,10.55 3.80833333,10.8166667 L2.05,12.1916667 C1.89166667,12.3166667 1.85,12.5416667 1.95,12.725 L3.61666667,15.6083333 C3.69166667,15.7416667 3.83333333,15.8166667 3.98333333,15.8166667 C4.03333333,15.8166667 4.08333333,15.8083333 4.125,15.7916667 L6.2,14.9583333 C6.63333333,15.2916667 7.1,15.5666667 7.60833333,15.775 L7.925,17.9833333 C7.95,18.1833333 8.125,18.3333333 8.33333333,18.3333333 L11.6666667,18.3333333 C11.875,18.3333333 12.05,18.1833333 12.075,17.9833333 L12.3916667,15.775 C12.9,15.5666667 13.3666667,15.2833333 13.8,14.9583333 L15.875,15.7916667 C15.925,15.8083333 15.975,15.8166667 16.025,15.8166667 C16.1666667,15.8166667 16.3083333,15.7416667 16.3833333,15.6083333 L18.05,12.725 C18.15,12.5416667 18.1083333,12.3166667 17.95,12.1916667 L16.1916667,10.8166667 Z M14.5416667,9.39166667 C14.575,9.65 14.5833333,9.825 14.5833333,10 C14.5833333,10.175 14.5666667,10.3583333 14.5416667,10.6083333 L14.425,11.55 L15.1666667,12.1333333 L16.0666667,12.8333333 L15.4833333,13.8416667 L14.425,13.4166667 L13.5583333,13.0666667 L12.8083333,13.6333333 C12.45,13.9 12.1083333,14.1 11.7666667,14.2416667 L10.8833333,14.6 L10.75,15.5416667 L10.5833333,16.6666667 L9.41666667,16.6666667 L9.25833333,15.5416667 L9.125,14.6 L8.24166667,14.2416667 C7.88333333,14.0916667 7.55,13.9 7.21666667,13.65 L6.45833333,13.0666667 L5.575,13.425 L4.51666667,13.85 L3.93333333,12.8416667 L4.83333333,12.1416667 L5.575,11.5583333 L5.45833333,10.6166667 C5.43333333,10.3583333 5.41666667,10.1666667 5.41666667,10 C5.41666667,9.83333333 5.43333333,9.64166667 5.45833333,9.39166667 L5.575,8.45 L4.83333333,7.86666667 L3.93333333,7.16666667 L4.51666667,6.15833333 L5.575,6.58333333 L6.44166667,6.93333333 L7.19166667,6.36666667 C7.55,6.1 7.89166667,5.9 8.23333333,5.75833333 L9.11666667,5.4 L9.25,4.45833333 L9.41666667,3.33333333 L10.575,3.33333333 L10.7333333,4.45833333 L10.8666667,5.4 L11.75,5.75833333 C12.1083333,5.90833333 12.4416667,6.1 12.775,6.35 L13.5333333,6.93333333 L14.4166667,6.575 L15.475,6.15 L16.0583333,7.15833333 L15.1666667,7.86666667 L14.425,8.45 L14.5416667,9.39166667 Z M10,6.66666667 C8.15833333,6.66666667 6.66666667,8.15833333 6.66666667,10 C6.66666667,11.8416667 8.15833333,13.3333333 10,13.3333333 C11.8416667,13.3333333 13.3333333,11.8416667 13.3333333,10 C13.3333333,8.15833333 11.8416667,6.66666667 10,6.66666667 Z M10,11.6666667 C9.08333333,11.6666667 8.33333333,10.9166667 8.33333333,10 C8.33333333,9.08333333 9.08333333,8.33333333 10,8.33333333 C10.9166667,8.33333333 11.6666667,9.08333333 11.6666667,10 C11.6666667,10.9166667 10.9166667,11.6666667 10,11.6666667 Z"></path>
                        </g>
                    </g>
                </g>
            </g>
        </g>
    </g>
</svg>