<?xml version="1.0" encoding="UTF-8"?>
<svg width="20px" height="20px" viewBox="0 0 20 20" version="1.1" xmlns="http://www.w3.org/2000/svg" xmlns:xlink="http://www.w3.org/1999/xlink">
    <!-- Generator: Sketch 52.5 (67469) - http://www.bohemiancoding.com/sketch -->
    <title>UI/Icons/Dash_Supp/Selected/Company Profile</title>
    <desc>Created with Sketch.</desc>
    <g id="UI/Icons/Dash_Supp/Selected/Company-Profile" stroke="none" stroke-width="1" fill="none" fill-rule="evenodd">
        <g id="home">
            <path d="M17.75,9.23644561 L16,7.51647492 L16,3.16637727 C16,2.89049836 15.776001,2.66637727 15.5,2.66637727 L13.166626,2.66637727 C12.890625,2.66637727 12.666626,2.89049836 12.666626,3.16637727 L12.666626,4.2784378 L10.3386231,2.1324417 C10.1446533,1.95312042 9.84472656,1.95641633 9.65405275,2.13915558 L2.24670409,9.23974152 C2.08996581,9.3964798 2,9.61242217 2,9.8331253 C2,10.2924759 2.37402344,10.6663773 2.83337403,10.6663773 L4,10.6663773 L4,16.6663773 C4,17.4030716 4.59667969,17.9997513 5.33337403,17.9997513 L14.666626,17.9997513 C15.4033203,17.9997513 16,17.4030716 16,16.6663773 L16,10.6663773 L17.166626,10.6663773 C17.6259766,10.6663773 18,10.2924759 18,9.8331253 C18,9.61242217 17.9100342,9.3964798 17.75,9.23644561 Z" id="Path" stroke="#EFBB5E" stroke-width="1.5"></path>
            <rect id="Rectangle" fill="#EFBB5E" x="4" y="10" width="9" height="2"></rect>
        </g>
    </g>
</svg>