<?xml version="1.0" encoding="UTF-8"?>
<svg width="12px" height="14px" viewBox="0 0 12 14" version="1.1" xmlns="http://www.w3.org/2000/svg" xmlns:xlink="http://www.w3.org/1999/xlink">
    <!-- Generator: sketchtool 52.5 (67469) - http://www.bohemiancoding.com/sketch -->
    <title>8630D4E7-644D-4E5F-BD56-A2B3AA63CA74</title>
    <desc>Created with sketchtool.</desc>
    <g id="Page-1" stroke="none" stroke-width="1" fill="none" fill-rule="evenodd">
        <g id="Mobile" transform="translate(-288.000000, -19.000000)" fill="#999999" fill-rule="nonzero">
            <path d="M296.481962,27.2090789 L296.445283,27.1929148 C296.357706,27.1540505 296.269494,27.1173943 296.179562,27.0830789 C296.081479,27.0447445 295.981947,27.0092808 295.880966,26.9760694 C295.801223,26.9505426 295.720891,26.926694 295.639698,26.9034196 C295.51603,26.86853 295.39114,26.8369968 295.262536,26.8091735 C295.218883,26.8003849 295.17437,26.7918612 295.130128,26.7841767 L295.099879,26.7784795 C295.02394,26.7639937 294.947683,26.7512303 294.870566,26.7401451 L294.848468,26.7367445 C294.847608,26.7367445 294.847019,26.7361703 294.846158,26.7361703 L294.82406,26.7333438 C294.76003,26.7239811 294.696317,26.7151924 294.629932,26.707817 L294.404106,26.6896656 C294.126475,26.6717792 293.840377,26.6723533 293.565962,26.691918 L293.485947,26.6984543 L293.448679,26.7012808 L293.35526,26.7094953 C293.269404,26.7182839 293.184136,26.7299432 293.098868,26.7432808 L293.073826,26.7466814 C293.015638,26.7560442 292.957404,26.7665552 292.900075,26.7770662 C292.836362,26.7881514 292.773464,26.8003407 292.710611,26.8136782 C292.588981,26.8403533 292.468166,26.8707382 292.3512,26.9039495 C292.258053,26.9300505 292.166128,26.9587129 292.079683,26.9876845 L292.019728,27.0087066 C291.836377,27.0719937 291.654204,27.1446435 291.477826,27.2244038 L291.430687,27.246265 L291.429826,27.2474132 C289.367321,28.2101893 288.037313,30.2614763 288.037313,32.4872997 C288.037313,32.5383975 288.0408,32.588612 288.044015,32.6391356 L288.059457,32.9922271 L299.932075,32.9922271 L299.94806,32.6431104 C299.951547,32.5914385 299.954762,32.5400757 299.954762,32.4872997 C299.954762,30.2259685 298.592468,28.15653 296.481962,27.2090789 Z M288.619562,32.4245426 C288.644604,30.4260757 289.856151,28.5927823 291.702702,27.7483659 L291.762068,27.7256656 L291.769042,27.7191293 C291.913675,27.654694 292.062974,27.5959558 292.214309,27.5440189 L292.262309,27.5272808 C292.344679,27.4994574 292.426732,27.4739306 292.512,27.450347 C292.618234,27.4199621 292.726506,27.3927129 292.835049,27.3689085 C292.8912,27.3572934 292.947396,27.3462082 293.005313,27.3356972 C293.051275,27.3274826 293.096966,27.318959 293.143245,27.3118486 L293.165932,27.3078738 C293.249162,27.2951104 293.332709,27.2834511 293.41594,27.2746625 L293.606264,27.2584984 C293.855366,27.240612 294.093736,27.2380505 294.382415,27.2584984 L294.567487,27.2735584 C294.613177,27.2786814 294.658868,27.2846435 294.714475,27.2922839 L294.781132,27.3016467 C294.850687,27.3115836 294.920242,27.3231987 294.990068,27.3360063 L295.022672,27.3419685 C295.061977,27.3490789 295.100966,27.3564543 295.137917,27.3640946 C295.252574,27.3885174 295.365192,27.4174448 295.476951,27.4489779 C295.550853,27.47 295.624211,27.4915521 295.695804,27.5148265 C295.786596,27.5443281 295.876257,27.5764353 295.965011,27.6107508 C296.050279,27.643388 296.13437,27.6783218 296.2176,27.7155079 L296.232136,27.7220442 C298.120619,28.5670347 299.346974,30.4062902 299.372015,32.4240568 L288.619562,32.4240568 L288.619562,32.4245426 Z M292.557464,25.9602082 C292.601117,25.9780946 292.646219,25.9936845 292.691321,26.0093186 L292.785917,26.042795 C292.822279,26.0563975 292.858958,26.0697792 292.896226,26.0811293 C293.24314,26.1875647 293.606038,26.2423281 293.975049,26.2451987 L294.004438,26.2457729 C294.131049,26.2457729 294.257932,26.2392366 294.379562,26.2270473 C294.421449,26.2230726 294.462204,26.2165363 294.50323,26.209735 L294.59434,26.1963975 C294.645555,26.1898612 294.69677,26.1824858 294.75034,26.1722839 C294.787019,26.1649085 294.822521,26.1555457 294.858023,26.146183 L294.957555,26.1214953 C295.006732,26.1098801 295.055909,26.0982208 295.104543,26.08347 C295.134792,26.0741073 295.164498,26.0633312 295.193887,26.052511 L295.273902,26.0244227 C295.330958,26.005123 295.388558,25.9852492 295.446204,25.9617098 C295.468619,25.952347 295.490445,25.9421451 295.511955,25.9318991 L295.537857,25.9194006 C295.61674,25.885041 295.695306,25.8498423 295.773283,25.8089905 L295.823909,25.779489 C295.911215,25.7312177 295.998249,25.6812681 296.086415,25.62253 C296.132106,25.5924543 296.175758,25.5586688 296.218823,25.5251924 L296.367849,25.4122208 C297.224649,24.7205237 297.717057,23.7055016 297.717057,22.6527634 L297.718823,22.6226877 C297.718823,20.6250599 296.052408,19.0000883 294.004166,19.0000883 C292.049072,19.0000883 290.422506,20.4910662 290.301147,22.3944921 L290.297932,22.4416151 C290.293268,22.5015016 290.289509,22.561388 290.289509,22.6226877 C290.288921,24.0817792 291.179185,25.3916845 292.557464,25.9602082 Z M290.878234,22.4809653 L290.881721,22.4298675 C290.984151,20.8247697 292.355457,19.5676845 294.003849,19.5676845 C295.731396,19.5676845 297.136438,20.9380505 297.137932,22.5967634 L297.136166,22.6265741 C297.134989,23.5354259 296.719426,24.3911924 295.993313,24.9790158 L295.855064,25.0817855 C295.824226,25.1062082 295.793072,25.1305868 295.754355,25.1567319 C295.684528,25.2030158 295.610581,25.2447066 295.535502,25.2861767 L295.493887,25.3108644 C295.431034,25.3438107 295.364966,25.3730032 295.296272,25.4028139 L295.219155,25.4391609 C295.174913,25.4570473 295.128362,25.4726372 295.082355,25.4882713 L294.986309,25.5220568 C294.967698,25.528858 294.94877,25.5362334 294.93043,25.5416215 C294.894657,25.5523975 294.857977,25.5606562 294.82157,25.5694448 L294.705464,25.5984164 C294.680423,25.6049527 294.655698,25.6117539 294.6336,25.6163028 C294.594883,25.6236782 294.555306,25.6288013 294.516045,25.6341893 L294.405464,25.6503533 C294.378702,25.6549022 294.351894,25.6594511 294.321917,25.6622776 C294.225011,25.6722145 294.127517,25.6776025 294.028574,25.6784416 L294.001223,25.6781767 L294.000634,25.6781767 C293.681977,25.6779117 293.369117,25.6316278 293.069932,25.5402524 C293.04403,25.5323028 293.018717,25.5223659 292.993404,25.5130032 L292.884,25.4741388 C292.849947,25.4624795 292.816211,25.4511293 292.783608,25.4377918 C291.621826,24.9585678 290.870943,23.8532744 290.870943,22.6228644 C290.870943,22.5749022 290.874747,22.5277792 290.878234,22.4809653 Z" id="Shape"></path>
        </g>
    </g>
</svg>